{
  "environment": "web",
  "source": "1JeshQNJ2uRC4JSbQt69Rrd7iqOlxsqmVJF15N-oSvdE",
  "format": "html",
  "prefix": "../../",
  "mainga": "UA-49880327-14",
  "updated": "2019-02-14T07:27:30Z",
  "id": "steps-to-go-app",
  "duration": 0,
  "title": "Туристическое приложение StepsToGo",
  "author": "Max",
  "summary": "Поэтапное создание туристического приложения. Пользователь может указать максимальное количество шагов до объектов (музеи и достопримечательности)",
  "theme": "web",
  "status": [
    "production"
  ],
  "category": [
    "Web"
  ],
  "tags": [
    "cds17",
    "chrome-dev-summit-2016",
    "gdd17",
    "io2016",
    "io2017",
    "kiosk",
    "pwa-dev-summit",
    "pwa-roadshow",
    "typtwd17",
    "web"
  ],
  "url": "steps-to-go-app"
}
