{
  "environment": "web",
  "source": "1HyZpjOw1jCKp6EiSoPC7B6zu4rC-dwy5Xbj0XkpNEfo",
  "format": "html",
  "prefix": "../../",
  "mainga": "UA-49880327-14",
  "updated": "2019-02-27T14:59:10Z",
  "id": "high-school-of-economics",
  "duration": 0,
  "title": "Geospatial Analytics",
  "author": "Max",
  "summary": "В данном уроке рассмотрено создание простого веб приложения с интерактивной картой",
  "theme": "web",
  "status": [
    "production"
  ],
  "category": [
    "Web"
  ],
  "tags": [
    "cds17",
    "chrome-dev-summit-2016",
    "gdd17",
    "io2016",
    "io2017",
    "kiosk",
    "pwa-dev-summit",
    "pwa-roadshow",
    "typtwd17",
    "web"
  ],
  "url": "high-school-of-economics"
}
